Parte-C/simulation/qsim/Parte-C.msim.vcd
$comment
	File created using the following command:
		vcd file Parte-C.msim.vcd -direction
$end
$date
	Wed Oct 29 20:15:19 2025
$end
$version
	ModelSim Version 10.1d
$end
$timescale
	1ps
$end
$scope module mult2x2_Ca2_vlg_vec_tst $end
$var reg 1 ! A0 $end
$var reg 1 " A1 $end
$var reg 1 # B0 $end
$var reg 1 $ B1 $end
$var reg 1 % clk $end
$var wire 1 & r0 $end
$var wire 1 ' r1 $end
$var wire 1 ( r2 $end
$var wire 1 ) r3 $end
$var wire 1 * V $end
$var wire 1 + sampler $end
$scope module i1 $end
$var wire 1 , gnd $end
$var wire 1 - vcc $end
$var wire 1 . unknown $end
$var tri1 1 / devclrn $end
$var tri1 1 0 devpor $end
$var tri1 1 1 devoe $end
$var wire 1 2 V~output_o $end
$var wire 1 3 r0~output_o $end
$var wire 1 4 r1~output_o $end
$var wire 1 5 r2~output_o $end
$var wire 1 6 r3~output_o $end
$var wire 1 7 clk~input_o $end
$var wire 1 8 A0~input_o $end
$var wire 1 9 DA0~feeder_combout $end
$var wire 1 : DA0~q $end
$var wire 1 ; B0~input_o $end
$var wire 1 < DB0~feeder_combout $end
$var wire 1 = DB0~q $end
$var wire 1 > inst1~combout $end
$var wire 1 ? DA2~q $end
$var wire 1 @ B1~input_o $end
$var wire 1 A DB1~feeder_combout $end
$var wire 1 B DB1~q $end
$var wire 1 C A1~input_o $end
$var wire 1 D DA1~q $end
$var wire 1 E inst12|S~combout $end
$var wire 1 F DA3~q $end
$var wire 1 G inst16|S~0_combout $end
$var wire 1 H DB2~q $end
$var wire 1 I inst17|S~0_combout $end
$var wire 1 J DB3~q $end
$upscope $end
$upscope $end
$enddefinitions $end
#0
$dumpvars
0!
0"
0#
0$
0%
0&
0'
0(
0)
0*
x+
0,
1-
x.
1/
10
11
02
03
04
05
06
07
08
09
0:
0;
0<
0=
0>
0?
0@
0A
0B
0C
0D
0E
0F
0G
0H
0I
0J
$end
#25000
1%
17
0+
#50000
0%
07
1+
#75000
1%
17
0+
#100000
0%
07
1+
#125000
1%
17
0+
#140000
1"
1!
1$
1C
18
1@
1+
19
1A
#150000
0%
07
0+
#175000
1%
17
1+
1D
1B
1:
1E
#200000
0%
07
0+
#225000
1%
17
1+
1F
14
1'
#250000
0%
07
0+
#275000
1%
17
1+
#300000
0%
07
0+
#325000
1%
17
1+
#350000
0%
07
0+
#375000
1%
17
1+
#390000
0"
0!
0$
0C
08
0@
0+
09
0A
#400000
0%
07
1+
#425000
1%
17
0+
0D
0B
0:
0E
#450000
0%
07
1+
#475000
1%
17
0+
0F
04
0'
#500000
0%
07
1+
#525000
1%
17
0+
#550000
0%
07
1+
#575000
1%
17
0+
#600000
0%
07
1+
#625000
1%
17
0+
#650000
0%
07
1+
#675000
1%
17
0+
#700000
0%
07
1+
#725000
1%
17
0+
#750000
0%
07
1+
#775000
1%
17
0+
#800000
0%
07
1+
#825000
1%
17
0+
#850000
0%
07
1+
#875000
1%
17
0+
#900000
0%
07
1+
#925000
1%
17
0+
#950000
0%
07
1+
#975000
1%
17
0+
